<svg width="33" height="40" viewBox="0 0 33 40" fill="none" xmlns="http://www.w3.org/2000/svg">
<g clip-path="url(#clip0)">
<path d="M16.4931 11.3758C17.9177 11.3793 19.3289 11.1013 20.6457 10.5577C21.9626 10.0142 23.159 9.2158 24.1664 8.20845C25.1737 7.20111 25.9721 6.00466 26.5156 4.68783C27.0592 3.371 27.3372 1.95975 27.3337 0.535156H26.3803C26.3791 2.76036 25.6289 4.92037 24.2504 6.66718C22.8719 8.41399 20.9455 9.64589 18.7816 10.1644C19.1571 9.66823 19.3581 9.06181 19.3532 8.43955V2.83918H19.8696C20.0029 2.83476 20.1298 2.78072 20.2253 2.68764C20.3208 2.59457 20.3782 2.46917 20.3861 2.33603V0.535156H19.4327V1.88579H13.5534V0.535156H12.6V2.33603C12.6079 2.46917 12.6653 2.59457 12.7608 2.68764C12.8563 2.78072 12.9832 2.83476 13.1165 2.83918H13.6329V8.43955C13.6281 9.06186 13.8292 9.66828 14.2049 10.1644C12.0409 9.64596 10.1144 8.4141 8.73587 6.66728C7.35732 4.92046 6.60699 2.76041 6.60577 0.535156H5.65238C5.64889 1.95975 5.92691 3.371 6.47047 4.68783C7.01403 6.00466 7.81241 7.20111 8.81976 8.20845C9.8271 9.2158 11.0236 10.0142 12.3404 10.5577C13.6572 11.1013 15.0685 11.3793 16.4931 11.3758ZM18.3654 8.87732C18.2595 9.29349 18.0179 9.6625 17.6788 9.92605C17.3397 10.1896 16.9225 10.3327 16.4931 10.3327C16.0636 10.3327 15.6464 10.1896 15.3073 9.92605C14.9682 9.6625 14.7266 9.29349 14.6207 8.87732H18.3654ZM14.6207 7.92393C14.8335 7.12944 15.5923 6.46866 16.4931 6.46866C17.3938 6.46866 18.1526 7.12944 18.3654 7.92393H14.6207ZM18.3998 2.83918V6.29848C17.8802 5.81982 17.1995 5.55411 16.4931 5.55411C15.7866 5.55411 15.1059 5.81982 14.5863 6.29848V2.83918H18.3998Z" fill="white"/>
<path d="M26.3803 39.3856H27.3337C27.3337 33.4269 22.4706 28.5449 16.493 28.5449C10.5154 28.5449 5.65234 33.4269 5.65234 39.3856H6.60573C6.60573 34.7775 9.85886 30.8224 14.2045 29.7826C13.8285 30.2887 13.6278 30.9037 13.6328 31.5342V37.161H13.1164C12.8532 37.161 12.6 37.3745 12.6 37.6377V39.465H13.5534V38.1144H19.4326V39.465H20.386V37.6377C20.386 37.3745 20.1331 37.161 19.8696 37.161H19.3532V31.5342C19.3582 30.9037 19.1575 30.2887 18.7815 29.7826C23.127 30.8224 26.3803 34.7775 26.3803 39.3856ZM14.6206 31.0434C14.8335 30.2489 15.5922 29.5882 16.493 29.5882C17.3938 29.5882 18.1525 30.2489 18.3654 31.0434H14.6206ZM18.3654 31.9968C18.2594 32.413 18.0178 32.782 17.6788 33.0456C17.3397 33.3091 16.9225 33.4522 16.493 33.4522C16.0636 33.4522 15.6464 33.3091 15.3073 33.0456C14.9682 32.782 14.7266 32.413 14.6206 31.9968H18.3654ZM14.5862 37.161V33.6752C15.1059 34.1538 15.7865 34.4196 16.493 34.4196C17.1995 34.4196 17.8802 34.1538 18.3998 33.6752V37.161H14.5862Z" fill="white"/>
<path d="M5.60951 18.3697C5.73593 18.3697 5.85718 18.3195 5.94658 18.2301C6.03598 18.1407 6.0862 18.0194 6.0862 17.893V13.0773C6.0862 12.9509 6.03598 12.8296 5.94658 12.7402C5.85718 12.6508 5.73593 12.6006 5.60951 12.6006C5.48308 12.6006 5.36183 12.6508 5.27243 12.7402C5.18304 12.8296 5.13281 12.9509 5.13281 13.0773V17.893C5.13281 18.0194 5.18304 18.1407 5.27243 18.2301C5.36183 18.3195 5.48308 18.3697 5.60951 18.3697Z" fill="white"/>
<path d="M5.60951 9.68086C5.73593 9.68086 5.85718 9.63064 5.94658 9.54124C6.03598 9.45184 6.0862 9.33059 6.0862 9.20416V7.91224C6.0862 7.78581 6.03598 7.66456 5.94658 7.57517C5.85718 7.48577 5.73593 7.43555 5.60951 7.43555C5.48308 7.43555 5.36183 7.48577 5.27243 7.57517C5.18304 7.66456 5.13281 7.78581 5.13281 7.91224V9.20416C5.13281 9.33059 5.18304 9.45184 5.27243 9.54124C5.36183 9.63064 5.48308 9.68086 5.60951 9.68086Z" fill="white"/>
<path d="M5.60951 11.7757C5.73593 11.7757 5.85718 11.7254 5.94658 11.636C6.03598 11.5466 6.0862 11.4254 6.0862 11.299V10.9171C6.0862 10.7907 6.03598 10.6694 5.94658 10.5801C5.85718 10.4907 5.73593 10.4404 5.60951 10.4404C5.48308 10.4404 5.36183 10.4907 5.27243 10.5801C5.18304 10.6694 5.13281 10.7907 5.13281 10.9171V11.299C5.13281 11.4254 5.18304 11.5466 5.27243 11.636C5.36183 11.7254 5.48308 11.7757 5.60951 11.7757Z" fill="white"/>
<path d="M3.70326 6.33494C3.82968 6.33494 3.95093 6.28472 4.04033 6.19532C4.12973 6.10593 4.17995 5.98468 4.17995 5.85825V0.535156H3.22656V5.85825C3.22656 5.98468 3.27679 6.10593 3.36618 6.19532C3.45558 6.28472 3.57683 6.33494 3.70326 6.33494Z" fill="white"/>
<path d="M4.17995 20.3974H13.0161C13.1135 21.2517 13.5219 22.0403 14.1635 22.6128C14.805 23.1853 15.6347 23.5017 16.4946 23.5017C17.3544 23.5017 18.1842 23.1853 18.8257 22.6128C19.4672 22.0403 19.8756 21.2517 19.9731 20.3974H28.8092V39.4652H29.7626V0.535156H28.8092V19.4441H19.9516C19.8194 18.6223 19.3989 17.8746 18.7654 17.3348C18.1319 16.795 17.3268 16.4986 16.4946 16.4986C15.6623 16.4986 14.8572 16.795 14.2237 17.3348C13.5902 17.8746 13.1697 18.6223 13.0376 19.4441H4.17995V9.03622C4.17995 8.90979 4.12973 8.78854 4.04033 8.69914C3.95093 8.60975 3.82969 8.55952 3.70326 8.55952C3.57683 8.55952 3.45558 8.60975 3.36618 8.69914C3.27679 8.78854 3.22656 8.90979 3.22656 9.03622V39.4652H4.17995V20.3974ZM16.4946 22.5485C15.8878 22.5476 15.3012 22.3307 14.8399 21.9365C14.3786 21.5423 14.0729 20.9967 13.9775 20.3974H19.0117C18.9163 20.9967 18.6105 21.5423 18.1493 21.9365C17.688 22.3307 17.1013 22.5476 16.4946 22.5485ZM16.4946 17.4519C17.0736 17.4527 17.6351 17.6503 18.087 18.0123C18.5389 18.3743 18.8543 18.8792 18.9813 19.4441H14.0086C14.1356 18.8793 14.4509 18.3745 14.9026 18.0125C15.3543 17.6505 15.9157 17.4529 16.4946 17.4519Z" fill="white"/>
<path d="M32.9427 0.534312C32.9427 0.407885 32.8925 0.286636 32.8031 0.197238C32.7137 0.10784 32.5925 0.0576172 32.466 0.0576172H0.527476C0.401049 0.0576172 0.279799 0.10784 0.190402 0.197238C0.101004 0.286636 0.0507813 0.407885 0.0507812 0.534312V39.4644C0.0507813 39.5908 0.101004 39.7121 0.190402 39.8015C0.279799 39.8909 0.401049 39.9411 0.527476 39.9411H32.466C32.5925 39.9411 32.7137 39.8909 32.8031 39.8015C32.8925 39.7121 32.9427 39.5908 32.9427 39.4644V0.534312ZM1.00417 1.01101H31.9893V38.9877H1.00417V1.01101Z" fill="white"/>
</g>
<defs>
<clipPath id="clip0">
<rect width="32.9944" height="40" fill="white"/>
</clipPath>
</defs>
</svg>
