<svg width="40" height="40" viewBox="0 0 40 40" fill="none" xmlns="http://www.w3.org/2000/svg">
<path d="M28.9734 11.6196C28.9735 9.81825 28.4393 8.05734 27.4385 6.55955C26.4378 5.06177 25.0153 3.89439 23.3511 3.20503C21.6868 2.51567 19.8556 2.3353 18.0888 2.68672C16.3221 3.03815 14.6992 3.90558 13.4254 5.17934C12.1517 6.45309 11.2842 8.07596 10.9328 9.84271C10.5814 11.6095 10.7618 13.4407 11.4511 15.105C12.1405 16.7692 13.3079 18.1917 14.8056 19.1924C16.3034 20.1932 18.0643 20.7274 19.8657 20.7273C22.2804 20.7246 24.5954 19.7641 26.3028 18.0567C28.0102 16.3493 28.9707 14.0343 28.9734 11.6196ZM25.6263 16.7173C25.5827 16.6737 25.531 16.6392 25.4742 16.6157C25.4173 16.5921 25.3563 16.58 25.2948 16.58C25.2332 16.58 25.1723 16.5921 25.1154 16.6157C25.0585 16.6392 25.0068 16.6738 24.9633 16.7173C24.9198 16.7608 24.8853 16.8125 24.8617 16.8694C24.8382 16.9263 24.826 16.9872 24.826 17.0488C24.826 17.1103 24.8382 17.1713 24.8617 17.2282C24.8853 17.285 24.9198 17.3367 24.9634 17.3802L25.2884 17.7158C23.9162 18.9541 22.1592 19.6817 20.3134 19.7761V19.2976C20.3134 19.1733 20.264 19.054 20.1761 18.9661C20.0882 18.8782 19.9689 18.8288 19.8446 18.8288C19.7203 18.8288 19.6011 18.8782 19.5132 18.9661C19.4252 19.054 19.3759 19.1733 19.3759 19.2976V19.7761C17.5397 19.6666 15.7942 18.9406 14.4219 17.7158L14.7627 17.3802C14.8072 17.3372 14.8426 17.2857 14.8671 17.2288C14.8915 17.172 14.9043 17.1108 14.9049 17.0489C14.9055 16.987 14.8938 16.9256 14.8705 16.8683C14.8471 16.811 14.8127 16.7589 14.769 16.715C14.7254 16.6711 14.6735 16.6363 14.6163 16.6126C14.5591 16.589 14.4978 16.5769 14.4359 16.5771C14.374 16.5773 14.3128 16.5898 14.2558 16.6139C14.1988 16.6379 14.1471 16.6731 14.1038 16.7173L13.7688 17.0632C12.5442 15.6907 11.8185 13.9452 11.7091 12.109H12.1877C12.312 12.109 12.4312 12.0596 12.5191 11.9717C12.607 11.8838 12.6564 11.7646 12.6564 11.6402C12.6564 11.5159 12.607 11.3967 12.5191 11.3088C12.4312 11.2209 12.312 11.1715 12.1877 11.1715H11.7091C11.8036 9.32565 12.5312 7.56874 13.7695 6.19664L14.1054 6.52703C14.194 6.61407 14.3134 6.66251 14.4376 6.66179C14.5618 6.66108 14.6807 6.61125 14.7683 6.52321C14.8562 6.43516 14.9056 6.31583 14.9056 6.19141C14.9056 6.06699 14.8562 5.94766 14.7683 5.85961L14.4222 5.52367C15.7944 4.29883 17.5398 3.57283 19.3759 3.46313V3.94164C19.3759 4.06596 19.4252 4.18519 19.5132 4.2731C19.6011 4.36101 19.7203 4.41039 19.8446 4.41039C19.9689 4.41039 20.0882 4.36101 20.1761 4.2731C20.264 4.18519 20.3134 4.06596 20.3134 3.94164V3.46313C22.1592 3.55752 23.9162 4.28514 25.2884 5.52344L24.9581 5.85899C24.9146 5.90283 24.8801 5.95482 24.8567 6.01198C24.8333 6.06914 24.8213 6.13036 24.8215 6.19214C24.8218 6.25392 24.8342 6.31505 24.858 6.37205C24.8819 6.42904 24.9167 6.48077 24.9606 6.5243C25.0044 6.56782 25.0564 6.60229 25.1135 6.62572C25.1707 6.64916 25.2319 6.6611 25.2937 6.66088C25.3555 6.66065 25.4166 6.64826 25.4736 6.62441C25.5306 6.60056 25.5823 6.56572 25.6259 6.52188L25.9618 6.19664C27.2001 7.56873 27.9277 9.32565 28.0221 11.1715H27.5436C27.4193 11.1715 27.3 11.2209 27.2121 11.3088C27.1242 11.3967 27.0748 11.5159 27.0748 11.6402C27.0748 11.7646 27.1242 11.8838 27.2121 11.9717C27.3 12.0596 27.4193 12.109 27.5436 12.109H28.0221C27.9126 13.9452 27.1867 15.6908 25.9618 17.0632L25.6263 16.7173Z" fill="#F4F4F4"/>
<path d="M18.8705 7.29415C18.902 7.29415 18.9334 7.29101 18.9643 7.28477C19.0398 7.26915 19.117 7.25587 19.1936 7.24446C19.2549 7.23584 19.3139 7.21518 19.3671 7.18365C19.4204 7.15212 19.4669 7.11035 19.5039 7.06076C19.541 7.01117 19.5678 6.95473 19.5829 6.89471C19.598 6.83469 19.6011 6.77227 19.592 6.71105C19.5828 6.64983 19.5616 6.59103 19.5297 6.53804C19.4977 6.48505 19.4555 6.43892 19.4056 6.40231C19.3557 6.3657 19.299 6.33934 19.2389 6.32474C19.1787 6.31015 19.1163 6.30761 19.0552 6.31727C18.9627 6.33102 18.8695 6.34743 18.7782 6.36595C18.6643 6.38897 18.563 6.45347 18.494 6.54694C18.425 6.64041 18.3931 6.75618 18.4046 6.8718C18.4162 6.98742 18.4702 7.09465 18.5563 7.17269C18.6424 7.25073 18.7544 7.29401 18.8705 7.29415Z" fill="#F4F4F4"/>
<path d="M18.1562 7.004C18.1298 6.94839 18.0927 6.89853 18.047 6.85726C18.0013 6.81599 17.948 6.78413 17.89 6.76348C17.832 6.74283 17.7705 6.73381 17.709 6.73693C17.6475 6.74005 17.5873 6.75525 17.5317 6.78166C16.7859 7.13828 16.1304 7.65892 15.6142 8.30463C15.098 8.95033 14.7345 9.7044 14.5509 10.5104C14.5371 10.5706 14.5354 10.6329 14.5457 10.6938C14.5561 10.7547 14.5784 10.8129 14.6114 10.8652C14.6444 10.9174 14.6873 10.9626 14.7378 10.9982C14.7883 11.0337 14.8453 11.059 14.9056 11.0724C14.9659 11.0859 15.0282 11.0873 15.089 11.0766C15.1498 11.0659 15.208 11.0433 15.26 11.0101C15.3121 10.9769 15.3571 10.9337 15.3924 10.883C15.4277 10.8323 15.4526 10.7752 15.4658 10.7149C15.6179 10.0477 15.9189 9.42347 16.3463 8.88901C16.7737 8.35455 17.3164 7.92365 17.9338 7.62853C17.9895 7.60213 18.0393 7.56502 18.0806 7.51935C18.1219 7.47367 18.1537 7.42031 18.1744 7.36232C18.195 7.30432 18.204 7.24283 18.2009 7.18135C18.1978 7.11987 18.1826 7.05961 18.1562 7.004Z" fill="#F4F4F4"/>
<path d="M19.8665 4.80469C18.5022 4.80469 17.1686 5.20923 16.0343 5.96717C14.9 6.7251 14.0159 7.80238 13.4938 9.06277C12.9717 10.3232 12.8351 11.7101 13.1013 13.0481C13.3674 14.3861 14.0244 15.6152 14.9891 16.5799C15.9537 17.5445 17.1828 18.2015 18.5208 18.4676C19.8588 18.7338 21.2457 18.5972 22.5061 18.0751C23.7665 17.553 24.8438 16.6689 25.6018 15.5346C26.3597 14.4003 26.7642 13.0667 26.7642 11.7024C26.7622 9.87366 26.0348 8.1204 24.7416 6.82727C23.4485 5.53414 21.6953 4.80676 19.8665 4.80469ZM19.8665 17.6627C18.6877 17.6627 17.5353 17.3131 16.5552 16.6582C15.575 16.0033 14.8111 15.0724 14.3599 13.9833C13.9088 12.8942 13.7908 11.6958 14.0208 10.5396C14.2508 9.38347 14.8184 8.32145 15.652 7.4879C16.4855 6.65435 17.5475 6.08669 18.7037 5.85671C19.8599 5.62674 21.0583 5.74477 22.1474 6.19588C23.2365 6.647 24.1673 7.41094 24.8222 8.39109C25.4772 9.37125 25.8267 10.5236 25.8267 11.7024C25.825 13.2827 25.1965 14.7977 24.0791 15.9151C22.9617 17.0325 21.4467 17.661 19.8665 17.6628V17.6627Z" fill="#F4F4F4"/>
<path d="M39.1204 20.0532C38.573 19.3461 37.7738 18.8775 36.8894 18.7449C36.005 18.6124 35.1035 18.8262 34.3728 19.3417L34.1055 19.5298C33.1228 18.5422 31.5466 18.2912 30.4608 19.0142C30.4575 19.0163 30.4543 19.0185 30.4511 19.0208L29.9143 19.3982C29.2474 18.9415 28.4544 18.7047 27.6463 18.721C26.8381 18.7372 26.0553 19.0057 25.4073 19.4888L22.7745 21.3538L19.0339 21.7979C18.2153 21.894 17.3855 21.8048 16.6059 21.537C13.6249 20.5082 10.6378 20.6768 8.61543 21.9878C7.80144 22.5146 7.29707 23.2259 6.80902 23.9139C6.65371 24.1326 6.49309 24.3592 6.32465 24.576C5.76301 25.3 5.14371 25.9724 4.38668 26.7592C3.32902 27.8583 2.19918 28.9631 0.931522 30.1367C0.886263 30.1787 0.849719 30.2291 0.823987 30.2851C0.798255 30.3412 0.78384 30.4018 0.781568 30.4634C0.779296 30.5251 0.789213 30.5865 0.810749 30.6444C0.832285 30.7022 0.865017 30.7551 0.907069 30.8003L6.99926 37.3446C7.04283 37.3925 7.09574 37.4309 7.15473 37.4576C7.21373 37.4843 7.27756 37.4987 7.3423 37.4998H7.34394C7.40897 37.4986 7.47306 37.484 7.5322 37.457C7.59134 37.4299 7.64427 37.3909 7.68769 37.3425L12.0896 32.5621C12.5621 32.2308 13.1415 32.0881 13.7139 32.1622C13.7238 32.1635 13.7338 32.1636 13.7438 32.1643L21.3596 32.6514C23.4088 32.7718 25.4429 32.234 27.1647 31.1164L39.0593 20.6931C39.1491 20.6144 39.2054 20.5043 39.2168 20.3853C39.2282 20.2664 39.1937 20.1476 39.1204 20.0532ZM30.9846 19.7914C31.652 19.3508 32.6486 19.4992 33.3218 20.0805L28.2857 23.6173C28.0634 23.1348 27.7512 22.6991 27.3657 22.3335L30.9846 19.7914ZM27.3739 24.5115L23.8853 24.7665C23.7993 24.7728 23.7134 24.7802 23.6275 24.7875C23.6898 24.5911 23.8063 24.4162 23.9636 24.283C24.1208 24.1498 24.3124 24.0636 24.5164 24.0344C25.5158 23.8865 26.7275 23.8796 27.3739 24.5115ZM25.9539 20.2498C25.9575 20.2473 25.9609 20.2448 25.9643 20.242C26.4065 19.9111 26.933 19.7115 27.4835 19.6663C28.0339 19.621 28.586 19.7317 29.0764 19.9859L26.5764 21.742C25.9857 21.3989 25.3197 21.2066 24.6371 21.1821L25.9539 20.2498ZM26.6252 30.3489C25.0783 31.3449 23.2549 31.8233 21.4182 31.7153L13.8175 31.2289C12.9977 31.1261 12.1696 31.3397 11.5018 31.8262L7.34043 36.3291L1.91293 30.5043C3.05558 29.4364 4.08894 28.4208 5.06238 27.4091C5.84019 26.6007 6.47855 25.9073 7.06558 25.1506C7.24613 24.9179 7.41262 24.6831 7.5734 24.4562C8.03035 23.8121 8.46191 23.2036 9.12457 22.7741C10.9068 21.6187 13.5889 21.4874 16.2993 22.4225C17.2125 22.7363 18.1846 22.8408 19.1437 22.7281L24.1024 22.1393C24.6199 22.0781 25.1445 22.1425 25.6318 22.327C26.1191 22.5116 26.5547 22.8108 26.9018 23.1995C26.2221 22.9939 25.3734 22.9596 24.3789 23.1066C23.9332 23.1702 23.5213 23.3802 23.2082 23.7037C22.8951 24.0272 22.6985 24.4458 22.6495 24.8933C22.1332 24.9612 21.6189 25.0471 21.1112 25.1517C20.9897 25.1771 20.8832 25.2496 20.8151 25.3534C20.747 25.4571 20.7228 25.5837 20.7479 25.7052C20.7729 25.8268 20.8452 25.9334 20.9487 26.0018C21.0523 26.0702 21.1788 26.0947 21.3004 26.0699C22.1758 25.8897 23.062 25.7666 23.9534 25.7012L28.206 25.3904C28.2691 25.3858 28.3307 25.3684 28.387 25.3393C28.4432 25.3102 28.493 25.2701 28.5333 25.2212C28.5736 25.1724 28.6036 25.1158 28.6215 25.0551C28.6393 24.9943 28.6447 24.9306 28.6372 24.8677C28.6244 24.7598 28.6076 24.6533 28.5869 24.5484L34.9123 20.1082C35.3839 19.7755 35.9549 19.6136 36.5309 19.6492C37.107 19.6848 37.6537 19.9158 38.0807 20.304L26.6252 30.3489Z" fill="white"/>
</svg>
