<svg width="16" height="16" viewBox="0 0 16 16" fill="none" xmlns="http://www.w3.org/2000/svg">
<g clip-path="url(#clip0)">
<path fill-rule="evenodd" clip-rule="evenodd" d="M14.6666 15.7342H1.33327C0.743935 15.7342 0.266602 15.2569 0.266602 14.6676V1.33424C0.266602 0.744912 0.743935 0.267578 1.33327 0.267578H14.6666C15.2559 0.267578 15.7333 0.744912 15.7333 1.33424V14.6676C15.7333 15.2569 15.2559 15.7342 14.6666 15.7342Z" stroke="white" stroke-linecap="round" stroke-linejoin="round"/>
<path d="M0.266602 3.4668H15.7333" stroke="white" stroke-linecap="round" stroke-linejoin="round"/>
<path fill-rule="evenodd" clip-rule="evenodd" d="M1.94792 1.87897C1.94792 2.06457 1.79752 2.21497 1.61192 2.21497C1.42579 2.21497 1.27539 2.06457 1.27539 1.87897C1.27539 1.69337 1.42579 1.54297 1.61192 1.54297C1.79752 1.54297 1.94792 1.69337 1.94792 1.87897Z" fill="white"/>
<path fill-rule="evenodd" clip-rule="evenodd" d="M3.29265 1.87897C3.29265 2.06457 3.14225 2.21497 2.95665 2.21497C2.77052 2.21497 2.62012 2.06457 2.62012 1.87897C2.62012 1.69337 2.77052 1.54297 2.95665 1.54297C3.14225 1.54297 3.29265 1.69337 3.29265 1.87897Z" fill="white"/>
<path fill-rule="evenodd" clip-rule="evenodd" d="M4.63738 1.87897C4.63738 2.06457 4.48698 2.21497 4.30138 2.21497C4.11524 2.21497 3.96484 2.06457 3.96484 1.87897C3.96484 1.69337 4.11524 1.54297 4.30138 1.54297C4.48698 1.54297 4.63738 1.69337 4.63738 1.87897Z" fill="white"/>
<path d="M3.4668 6.13477H12.5335" stroke="white" stroke-linecap="round" stroke-linejoin="round"/>
<path d="M3.4668 8.80078H12.5335" stroke="white" stroke-linecap="round" stroke-linejoin="round"/>
<path d="M3.4668 11.4668H12.5335" stroke="white" stroke-linecap="round" stroke-linejoin="round"/>
</g>
<defs>
<clipPath id="clip0">
<rect width="16" height="16" fill="white"/>
</clipPath>
</defs>
</svg>
