<svg width="12" height="16" viewBox="0 0 12 16" fill="none" xmlns="http://www.w3.org/2000/svg">
<g clip-path="url(#clip0)">
<path fill-rule="evenodd" clip-rule="evenodd" d="M11.4666 4.53425L7.73327 0.267578H0.799935C0.505535 0.267578 0.266602 0.506511 0.266602 0.800911V15.2009C0.266602 15.4953 0.505535 15.7342 0.799935 15.7342H10.9333C11.2277 15.7342 11.4666 15.4953 11.4666 15.2009V4.53425Z" stroke="white" stroke-linecap="round" stroke-linejoin="round"/>
<path d="M7.7334 0.267578V4.00091C7.7334 4.29531 7.97233 4.53424 8.26673 4.53424H11.4667" stroke="white" stroke-linecap="round" stroke-linejoin="round"/>
<path d="M2.93359 6.66797H8.80026" stroke="white" stroke-linecap="round" stroke-linejoin="round"/>
<path d="M2.93359 9.33398H8.80026" stroke="white" stroke-linecap="round" stroke-linejoin="round"/>
<path d="M2.93359 12H8.80026" stroke="white" stroke-linecap="round" stroke-linejoin="round"/>
</g>
<defs>
<clipPath id="clip0">
<rect width="11.7333" height="16" fill="white"/>
</clipPath>
</defs>
</svg>
