<svg width="240" height="240" viewBox="0 0 240 240" fill="none" xmlns="http://www.w3.org/2000/svg">
<path d="M173.835 69.7201C173.835 58.9119 170.63 48.3465 164.625 39.3598C158.621 30.3731 150.086 23.3688 140.101 19.2326C130.115 15.0965 119.127 14.0142 108.527 16.1228C97.9265 18.2313 88.1893 23.4359 80.5467 31.0785C72.9042 38.721 67.6996 48.4582 65.591 59.0587C63.4825 69.6592 64.5647 80.6469 68.7009 90.6323C72.837 100.618 79.8413 109.152 88.828 115.157C97.8147 121.162 108.38 124.367 119.188 124.366C133.676 124.35 147.566 118.587 157.811 108.343C168.056 98.0981 173.818 84.2082 173.835 69.7201ZM153.752 100.306C153.49 100.045 153.18 99.8377 152.839 99.6964C152.498 99.5551 152.132 99.4823 151.763 99.4824C151.393 99.4824 151.028 99.5552 150.686 99.6965C150.345 99.8379 150.035 100.045 149.774 100.306C149.513 100.567 149.306 100.878 149.164 101.219C149.023 101.56 148.95 101.926 148.95 102.295C148.95 102.664 149.023 103.03 149.165 103.371C149.306 103.713 149.513 104.023 149.774 104.284L151.724 106.297C143.491 113.727 132.95 118.093 121.874 118.659V115.788C121.874 115.042 121.578 114.327 121.051 113.799C120.523 113.272 119.808 112.975 119.062 112.975C118.316 112.975 117.601 113.272 117.073 113.799C116.546 114.327 116.249 115.042 116.249 115.788V118.659C105.232 118.002 94.7594 113.646 86.5254 106.297L88.5706 104.284C88.8373 104.025 89.05 103.717 89.1965 103.375C89.3429 103.034 89.4201 102.667 89.4236 102.296C89.4271 101.925 89.3569 101.556 89.2169 101.212C89.077 100.868 88.8701 100.556 88.6083 100.292C88.3465 100.029 88.035 99.8202 87.6919 99.6782C87.3488 99.5362 86.981 99.4637 86.6096 99.465C86.2383 99.4662 85.8709 99.5412 85.5288 99.6856C85.1867 99.83 84.8766 100.041 84.6167 100.306L82.6071 102.382C75.2591 94.1468 70.9049 83.6734 70.249 72.6564H73.1201C73.866 72.6564 74.5814 72.36 75.1088 71.8326C75.6363 71.3051 75.9326 70.5898 75.9326 69.8439C75.9326 69.0979 75.6363 68.3826 75.1088 67.8551C74.5814 67.3277 73.866 67.0314 73.1201 67.0314H70.249C70.8155 55.9564 75.1812 45.4149 82.6109 37.1823L84.6265 39.1646C85.1581 39.6868 85.8747 39.9775 86.6199 39.9732C87.3651 39.9689 88.0783 39.67 88.6038 39.1417C89.1313 38.6134 89.4275 37.8974 89.4275 37.1509C89.4275 36.4044 89.1313 35.6884 88.6038 35.1601L86.5273 33.1445C94.7606 25.7954 105.233 21.4394 116.249 20.7812V23.6523C116.249 24.3982 116.546 25.1136 117.073 25.641C117.601 26.1685 118.316 26.4648 119.062 26.4648C119.808 26.4648 120.523 26.1685 121.051 25.641C121.578 25.1136 121.874 24.3982 121.874 23.6523V20.7812C132.95 21.3476 143.491 25.7133 151.724 33.1431L149.743 35.1564C149.482 35.4194 149.275 35.7314 149.134 36.0743C148.994 36.4173 148.922 36.7846 148.923 37.1553C148.925 37.526 148.999 37.8928 149.142 38.2347C149.285 38.5767 149.494 38.8871 149.757 39.1482C150.021 39.4094 150.332 39.6162 150.675 39.7568C151.018 39.8974 151.386 39.9691 151.756 39.9677C152.127 39.9664 152.494 39.892 152.836 39.7489C153.178 39.6058 153.488 39.3968 153.749 39.1337L155.765 37.1823C163.195 45.4149 167.56 55.9563 168.127 67.0314H165.256C164.51 67.0314 163.794 67.3277 163.267 67.8551C162.74 68.3826 162.443 69.0979 162.443 69.8439C162.443 70.5898 162.74 71.3051 163.267 71.8326C163.794 72.36 164.51 72.6564 165.256 72.6564H168.127C167.47 83.6738 163.114 94.1473 155.765 102.382L153.752 100.306Z" fill="#00A1DF"/>
<path d="M113.225 43.7673C113.414 43.7674 113.603 43.7485 113.788 43.7111C114.241 43.6173 114.704 43.5376 115.164 43.4692C115.531 43.4175 115.885 43.2935 116.205 43.1043C116.524 42.9152 116.803 42.6646 117.025 42.367C117.248 42.0695 117.409 41.7309 117.499 41.3707C117.59 41.0106 117.609 40.6361 117.554 40.2688C117.499 39.9015 117.372 39.5487 117.18 39.2307C116.988 38.9128 116.735 38.636 116.436 38.4163C116.136 38.1967 115.796 38.0385 115.435 37.9509C115.074 37.8633 114.7 37.8481 114.333 37.9061C113.778 37.9886 113.219 38.087 112.671 38.1981C111.988 38.3363 111.38 38.7233 110.966 39.2841C110.552 39.8449 110.361 40.5395 110.43 41.2333C110.499 41.927 110.823 42.5704 111.34 43.0386C111.856 43.5068 112.528 43.7665 113.225 43.7673Z" fill="#00A1DF"/>
<path d="M108.937 42.024C108.779 41.6904 108.556 41.3912 108.282 41.1436C108.008 40.896 107.688 40.7048 107.34 40.5809C106.992 40.457 106.623 40.4029 106.254 40.4216C105.885 40.4403 105.524 40.5315 105.19 40.6899C100.715 42.8297 96.7822 45.9535 93.6852 49.8278C90.5881 53.702 88.4071 58.2264 87.3053 63.0624C87.2226 63.4237 87.2121 63.7977 87.2744 64.1629C87.3368 64.5282 87.4707 64.8776 87.6684 65.1909C87.8662 65.5043 88.1239 65.7755 88.4269 65.989C88.7298 66.2024 89.0719 66.3539 89.4335 66.4347C89.7951 66.5155 90.1692 66.5241 90.5341 66.4599C90.8991 66.3957 91.2478 66.26 91.5601 66.0606C91.8725 65.8612 92.1423 65.6021 92.3542 65.2981C92.5661 64.9941 92.7158 64.6512 92.7948 64.2892C93.7075 60.2859 95.5136 56.5408 98.0779 53.3341C100.642 50.1273 103.899 47.5419 107.603 45.7712C107.937 45.6128 108.236 45.3901 108.484 45.1161C108.731 44.842 108.922 44.5219 109.046 44.1739C109.17 43.8259 109.224 43.457 109.205 43.0881C109.187 42.7192 109.096 42.3576 108.937 42.024Z" fill="#00A1DF"/>
<path d="M119.189 28.8281C111.004 28.8281 103.002 31.2554 96.1961 35.803C89.3902 40.3506 84.0855 46.8143 80.9531 54.3766C77.8207 61.939 77.0011 70.2604 78.598 78.2886C80.1949 86.3168 84.1366 93.6912 89.9246 99.4791C95.7126 105.267 103.087 109.209 111.115 110.806C119.143 112.403 127.465 111.583 135.027 108.451C142.589 105.318 149.053 100.014 153.601 93.2076C158.148 86.4016 160.576 78.4 160.576 70.2145C160.563 59.242 156.199 48.7224 148.44 40.9636C140.681 33.2049 130.162 28.8405 119.189 28.8281ZM119.189 105.976C112.116 105.976 105.202 103.879 99.3212 99.9491C93.4403 96.0196 88.8566 90.4344 86.1499 83.8998C83.4432 77.3653 82.735 70.1749 84.1149 63.2378C85.4948 56.3008 88.9007 49.9287 93.902 44.9274C98.9034 39.9261 105.275 36.5201 112.212 35.1403C119.15 33.7604 126.34 34.4686 132.874 37.1753C139.409 39.882 144.994 44.4656 148.924 50.3466C152.853 56.2275 154.951 63.1416 154.951 70.2145C154.94 79.6959 151.169 88.7859 144.465 95.4904C137.76 102.195 128.671 105.966 119.189 105.977V105.976Z" fill="#00A1DF"/>
<path d="M234.721 120.321C231.436 116.078 226.641 113.266 221.334 112.471C216.028 111.676 210.619 112.958 206.235 116.052L204.631 117.18C198.735 111.254 189.278 109.748 182.763 114.086C182.743 114.099 182.724 114.112 182.704 114.126L179.484 116.391C175.482 113.65 170.724 112.23 165.876 112.327C161.027 112.425 156.33 114.035 152.442 116.934L136.645 128.124L114.202 130.789C109.29 131.365 104.311 130.83 99.6334 129.223C81.7473 123.051 63.8247 124.062 51.6906 131.928C46.8067 135.089 43.7805 139.357 40.8522 143.484C39.9203 144.797 38.9566 146.156 37.9459 147.457C34.5761 151.801 30.8603 155.835 26.3181 160.556C19.9722 167.151 13.1931 173.78 5.58718 180.822C5.31562 181.073 5.09636 181.376 4.94197 181.712C4.78758 182.048 4.70109 182.412 4.68746 182.782C4.67382 183.152 4.73332 183.521 4.86254 183.867C4.99176 184.214 5.18815 184.532 5.44046 184.803L41.9936 224.069C42.255 224.356 42.5725 224.587 42.9264 224.747C43.2804 224.907 43.6634 224.993 44.0519 225H44.0617C44.4519 224.993 44.8364 224.905 45.1912 224.743C45.5461 224.581 45.8637 224.347 46.1242 224.056L72.5355 195.374C75.3709 193.386 78.8471 192.53 82.2812 192.974C82.3408 192.982 82.4008 192.983 82.4608 192.987L128.155 195.909C140.451 196.632 152.655 193.405 162.986 186.7L234.354 124.16C234.893 123.687 235.231 123.027 235.299 122.313C235.367 121.6 235.16 120.887 234.721 120.321ZM185.905 118.75C189.91 116.106 195.89 116.997 199.929 120.484L169.712 141.705C168.379 138.81 166.505 136.196 164.192 134.002L185.905 118.75ZM164.241 147.07L143.31 148.6C142.794 148.638 142.278 148.682 141.763 148.726C142.137 147.548 142.836 146.499 143.779 145.699C144.723 144.9 145.873 144.383 147.097 144.208C153.093 143.32 160.363 143.279 164.241 147.07ZM155.722 121.5C155.743 121.485 155.763 121.47 155.784 121.453C158.437 119.468 161.596 118.271 164.899 117.999C168.202 117.727 171.514 118.392 174.456 119.917L159.456 130.453C155.912 128.395 151.916 127.241 147.82 127.094L155.722 121.5ZM159.749 182.095C150.468 188.07 139.527 190.941 128.507 190.293L82.9028 187.374C77.9841 186.758 73.0154 188.04 69.0086 190.958L44.0406 217.976L11.4756 183.027C18.3316 176.62 24.5317 170.526 30.3723 164.456C35.0392 159.606 38.8694 155.445 42.3916 150.905C43.4748 149.509 44.4737 148.1 45.4384 146.738C48.1801 142.874 50.7695 139.223 54.7455 136.646C65.4391 129.713 81.5312 128.925 97.7936 134.536C103.273 136.419 109.106 137.046 114.86 136.37L144.612 132.837C147.717 132.47 150.865 132.856 153.789 133.963C156.712 135.071 159.326 136.866 161.409 139.198C157.331 137.965 152.238 137.759 146.272 138.641C143.597 139.022 141.126 140.283 139.247 142.224C137.368 144.165 136.189 146.676 135.895 149.361C132.797 149.768 129.711 150.284 126.665 150.912C125.936 151.064 125.297 151.499 124.889 152.121C124.48 152.744 124.335 153.503 124.485 154.232C124.636 154.962 125.069 155.602 125.69 156.012C126.312 156.422 127.071 156.569 127.801 156.421C133.053 155.34 138.37 154.601 143.718 154.208L169.234 152.344C169.613 152.316 169.982 152.212 170.32 152.037C170.657 151.863 170.956 151.622 171.198 151.329C171.44 151.035 171.62 150.696 171.727 150.332C171.834 149.967 171.866 149.585 171.821 149.207C171.745 148.56 171.644 147.921 171.52 147.291L209.472 120.651C212.301 118.654 215.727 117.683 219.184 117.896C222.64 118.11 225.92 119.496 228.482 121.825L159.749 182.095Z" fill="white"/>
</svg>
