<svg width="30" height="30" viewBox="0 0 30 30" fill="none" xmlns="http://www.w3.org/2000/svg">
<g clip-path="url(#clip0)">
<path d="M29.3819 7.79833C29.0361 6.51316 28.0228 5.50013 26.7379 5.15407C24.3902 4.5116 14.9997 4.5116 14.9997 4.5116C14.9997 4.5116 5.60941 4.5116 3.26178 5.12958C2.00156 5.47541 0.963588 6.51339 0.61775 7.79833C0 10.1457 0 15.014 0 15.014C0 15.014 0 19.9068 0.61775 22.2297C0.963817 23.5147 1.97684 24.5279 3.26201 24.874C5.63413 25.5165 14.9999 25.5165 14.9999 25.5165C14.9999 25.5165 24.3902 25.5165 26.7379 24.8985C28.023 24.5526 29.0361 23.5394 29.3821 22.2544C29.9999 19.9068 29.9999 15.0387 29.9999 15.0387C29.9999 15.0387 30.0246 10.1457 29.3819 7.79833Z" fill="#5A5A5A"/>
<path d="M12.01 19.5107L19.8188 15.0132L12.01 10.5156V19.5107Z" fill="black"/>
</g>
<defs>
<clipPath id="clip0">
<rect width="30" height="30" fill="white"/>
</clipPath>
</defs>
</svg>
