<svg width="354" height="314" viewBox="0 0 354 314" fill="none" xmlns="http://www.w3.org/2000/svg">
<path d="M353.287 289.351L327.175 205.543C326.268 201.003 323.64 196.989 319.841 194.343C321.568 192.668 322.945 190.667 323.892 188.456C324.84 186.245 325.338 183.868 325.359 181.462V18.9414C325.359 8.63219 316.728 0.203125 306.419 0.203125H47.5799C37.27 0.203125 28.6398 8.63219 28.6398 18.9414V181.462C28.6605 183.868 29.1589 186.245 30.1061 188.456C31.0532 190.667 32.4303 192.668 34.1572 194.343C30.342 196.985 27.6933 200.997 26.7632 205.543L0.68146 289.351C0.560957 289.764 0.504754 290.194 0.514819 290.625V295.059C0.518889 300.02 2.48871 304.777 5.99297 308.289C9.49723 311.801 14.2504 313.782 19.2116 313.797H334.787C339.748 313.782 344.501 311.801 348.005 308.289C351.51 304.777 353.48 300.02 353.484 295.059V290.625C353.484 290.192 353.417 289.763 353.287 289.351ZM37.0773 18.9414C37.1339 16.1923 38.2649 13.5747 40.228 11.6493C42.1911 9.72391 44.8302 8.6439 47.5799 8.64062H306.419C309.168 8.6439 311.807 9.72391 313.77 11.6493C315.733 13.5747 316.865 16.1923 316.921 18.9414V181.462C316.876 184.085 315.819 186.588 313.971 188.45C312.124 190.311 309.629 191.387 307.007 191.453H46.9914C44.3695 191.387 41.8744 190.311 40.0271 188.45C38.1797 186.588 37.1229 184.085 37.0773 181.462V18.9414ZM34.944 207.83C34.9897 207.683 35.0277 207.7 35.0572 207.549C35.5046 205.362 36.7016 203.4 38.4414 202.002C40.1813 200.604 42.3549 199.857 44.5867 199.891H309.448C311.675 199.86 313.844 200.609 315.577 202.009C317.311 203.409 318.5 205.37 318.94 207.555C318.97 207.674 319.007 207.792 319.053 207.906L343.532 286.375H228.615L222.676 268.294C222.403 267.438 221.871 266.688 221.152 266.148C220.434 265.608 219.566 265.305 218.668 265.281H135.328C134.43 265.305 133.561 265.608 132.843 266.148C132.125 266.688 131.593 267.438 131.32 268.294L125.384 286.375H10.4669L34.944 207.83ZM219.728 286.375H134.27L138.377 273.719H215.622L219.728 286.375ZM345.046 295.059C345.045 297.783 343.965 300.396 342.042 302.326C340.12 304.256 337.511 305.347 334.787 305.359H19.2116C16.4873 305.347 13.8788 304.256 11.9563 302.326C10.0338 300.396 8.95378 297.783 8.95232 295.059V294.812H345.046V295.059Z" fill="white"/>
</svg>
